%YAML 1.1
%TAG !u! tag:unity3d.com,2011:
--- !u!21 &2100000
Material:
  serializedVersion: 6
  m_ObjectHideFlags: 0
  m_CorrespondingSourceObject: {fileID: 0}
  m_PrefabInstance: {fileID: 0}
  m_PrefabAsset: {fileID: 0}
  m_Name: ScifiSoldierScarletHairRed
  m_Shader: {fileID: 46, guid: 0000000000000000f000000000000000, type: 0}
  m_ShaderKeywords: _ALPHAPREMULTIPLY_ON _METALLICGLOSSMAP _NORMALMAP _SPECULARHIGHLIGHTS_OFF
  m_LightmapFlags: 4
  m_EnableInstancingVariants: 1
  m_DoubleSidedGI: 1
  m_CustomRenderQueue: 3000
  stringTagMap:
    RenderType: Transparent
  disabledShaderPasses: []
  m_SavedProperties:
    serializedVersion: 3
    m_TexEnvs:
    - _AlphaClip:
        m_Texture: {fileID: 2800000, guid: 0e7151214ff8f0945bee6e2640e7aef6, type: 3}
        m_Scale: {x: 1, y: 1}
        m_Offset: {x: 0, y: 0}
    - _BumpMap:
        m_Texture: {fileID: 2800000, guid: 67cab7dd87e33fd48a9737495f35fa23, type: 3}
        m_Scale: {x: 1, y: 1}
        m_Offset: {x: 0, y: 0}
    - _CutoutTipGrad1TipGrad2:
        m_Texture: {fileID: 2800000, guid: db53956d7bc64a542926b4d2aa7b036b, type: 3}
        m_Scale: {x: 1, y: 1}
        m_Offset: {x: 0, y: 0}
    - _DetailAlbedoMap:
        m_Texture: {fileID: 0}
        m_Scale: {x: 1, y: 1}
        m_Offset: {x: 0, y: 0}
    - _DetailMask:
        m_Texture: {fileID: 0}
        m_Scale: {x: 1, y: 1}
        m_Offset: {x: 0, y: 0}
    - _DetailNormalMap:
        m_Texture: {fileID: 0}
        m_Scale: {x: 1, y: 1}
        m_Offset: {x: 0, y: 0}
    - _EmissionMap:
        m_Texture: {fileID: 0}
        m_Scale: {x: 1, y: 1}
        m_Offset: {x: 0, y: 0}
    - _HairToneVariation:
        m_Texture: {fileID: 2800000, guid: 1b091be6943bace43939329aa6038a89, type: 3}
        m_Scale: {x: 1, y: 1}
        m_Offset: {x: 0, y: 0}
    - _HairsNormal:
        m_Texture: {fileID: 2800000, guid: 67cab7dd87e33fd48a9737495f35fa23, type: 3}
        m_Scale: {x: 1, y: 1}
        m_Offset: {x: 0, y: 0}
    - _MainTex:
        m_Texture: {fileID: 2800000, guid: 22bc7065d03288243aeb7fa83b74c2b7, type: 3}
        m_Scale: {x: 1, y: 1}
        m_Offset: {x: 0, y: 0}
    - _MetallicGlossMap:
        m_Texture: {fileID: 2800000, guid: 07a3eabe973e17f4f95158aa66b5ff32, type: 3}
        m_Scale: {x: 1, y: 1}
        m_Offset: {x: 0, y: 0}
    - _NormalMap1:
        m_Texture: {fileID: 2800000, guid: 67cab7dd87e33fd48a9737495f35fa23, type: 3}
        m_Scale: {x: 1, y: 1}
        m_Offset: {x: 0, y: 0}
    - _NormalMap2:
        m_Texture: {fileID: 2800000, guid: 67cab7dd87e33fd48a9737495f35fa23, type: 3}
        m_Scale: {x: 1, y: 1}
        m_Offset: {x: 0, y: 0}
    - _OcclusionMap:
        m_Texture: {fileID: 2800000, guid: a474ef9ba60ab454c9e5f3e630e5cf02, type: 3}
        m_Scale: {x: 1, y: 1}
        m_Offset: {x: 0, y: 0}
    - _ParallaxMap:
        m_Texture: {fileID: 0}
        m_Scale: {x: 1, y: 1}
        m_Offset: {x: 0, y: 0}
    m_Floats:
    - _BumpScale: 1
    - _Cutoff: 0.5
    - _DetailNormalMapScale: 1
    - _DstBlend: 10
    - _FastSlow: 164
    - _GlossMapScale: 0
    - _Gloss_Variation: 0.5
    - _Glossiness: 0.5
    - _GlossyReflections: 1
    - _Grad1_Power: 1
    - _Grad2_Power: 0.446602
    - _HairSpecCol_Mixing: 0.5
    - _Metallic: 0
    - _Mode: 3
    - _MotionAmount: 0.01
    - _Normal_Blending: 0.5
    - _OcclusionStrength: 1
    - _Parallax: 0.02
    - _SmoothnessTextureChannel: 0
    - _SpecColorInheritance: 0
    - _SpecularHighlights: 0
    - _SrcBlend: 1
    - _TipAmount: 1
    - _UVSec: 0
    - _ZWrite: 0
    m_Colors:
    - _BaseColorGloss: {r: 0.18867922, g: 0.18867922, b: 0.18867922, a: 1}
    - _Color: {r: 1, g: 1, b: 1, a: 1}
    - _EmissionColor: {r: 0, g: 0, b: 0, a: 1}
    - _Grad1_Color: {r: 1, g: 0, b: 0, a: 1}
    - _Grad2_Color: {r: 0, g: 0.5, b: 1, a: 1}
    - _Hair_ColorGloss: {r: 0.5, g: 0.5, b: 0.5, a: 1}
    - _NormalAngleShift: {r: 0.5, g: 0.5, b: 0.5, a: 1}
    - _NormalShift: {r: 0, g: 0.5019608, b: 0, a: 0}
    - _ShineColor_ToneBoost: {r: 0.4528302, g: 0.4528302, b: 0.4528302, a: 1}
    - _ShineColor_ToneBost: {r: 0.5, g: 0.5, b: 0.5, a: 1}
    - _TipColor_Mix: {r: 0.5471698, g: 0.17834681, b: 0.11614455, a: 1}
    - _Tip_Color: {r: 0.11724136, g: 1, b: 0, a: 0.5}
  m_BuildTextureStacks: []
